5.380000000000000000e+02 1.300000000000000000e+01
1.700000000000000000e+01 2.306000000000000000e+03

              precision    recall  f1-score   support

           0       0.97      0.98      0.97       551
           1       0.99      0.99      0.99      2323

   micro avg       0.99      0.99      0.99      2874
   macro avg       0.98      0.98      0.98      2874
weighted avg       0.99      0.99      0.99      2874
