5.200000000000000000e+02 3.100000000000000000e+01
8.000000000000000000e+00 2.315000000000000000e+03

              precision    recall  f1-score   support

           0       0.98      0.94      0.96       551
           1       0.99      1.00      0.99      2323

   micro avg       0.99      0.99      0.99      2874
   macro avg       0.99      0.97      0.98      2874
weighted avg       0.99      0.99      0.99      2874
