1.250000000000000000e+02 2.700000000000000000e+01
2.100000000000000000e+01 1.270000000000000000e+02
WITH K=39
              precision    recall  f1-score   support

           0       0.86      0.82      0.84       152
           1       0.82      0.86      0.84       148

   micro avg       0.84      0.84      0.84       300
   macro avg       0.84      0.84      0.84       300
weighted avg       0.84      0.84      0.84       300
